{"success":true,"message":"Danh s\u00e1ch y\u00eau c\u1ea7u c\u1ee9u h\u1ed9","data":{"current_page":1,"data":[{"id_yeu_cau":16,"id_nguoi_dung":11,"id_loai_su_co":1,"vi_tri_lat":"16.04973882","vi_tri_lng":"108.21332948","vi_tri_dia_chi":"aaa","chi_tiet":"H\u1ed7 tr\u1ee3 y t\u1ebf","mo_ta":"q\u01b0qw","hinh_anh":null,"so_nguoi_bi_anh_huong":1,"muc_do_khan_cap":"HIGH","diem_uu_tien":0,"trang_thai":"CHO_XU_LY","thoi_gian_gui":"2026-03-31 22:20:41","created_at":"2026-03-31T15:20:41.000000Z","updated_at":"2026-03-31T15:20:41.000000Z","nguoi_dung":{"id_nguoi_dung":11,"ho_ten":"thanhdat","so_dien_thoai":"0912345678","email":"thanhdac123@gmail.com","trang_thai":1,"created_at":"2026-03-31T15:18:29.000000Z","updated_at":"2026-03-31T15:18:29.000000Z"},"loai_su_co":{"id_loai_su_co":1,"ten_danh_muc":"L\u0169 l\u1ee5t","slug_danh_muc":"lu-lut","mo_ta":"S\u1ef1 c\u1ed1 li\u00ean quan \u0111\u1ebfn ng\u1eadp l\u1ee5t, n\u01b0\u1edbc d\u00e2ng cao","trang_thai":1,"created_at":"2026-03-31T14:42:16.000000Z","updated_at":"2026-03-31T14:42:16.000000Z"},"hang_doi_xu_ly":{"id_hang_doi":16,"id_yeu_cau":16,"diem_uu_tien":0,"muc_khan_cap":"HIGH","trang_thai":"WAITING","thoi_gian_vao":"2026-03-31 22:20:41","thoi_gian_phan_cong":null,"created_at":"2026-03-31T15:20:41.000000Z","updated_at":"2026-03-31T15:20:41.000000Z"},"phan_loai_ais":[],"phan_congs":[],"danh_gias":[]},{"id_yeu_cau":15,"id_nguoi_dung":5,"id_loai_su_co":3,"vi_tri_lat":"10.79000000","vi_tri_lng":"106.71500000","vi_tri_dia_chi":"\u0110\u01b0\u1eddng C\u00e1ch M\u1ea1ng Th\u00e1ng 8, Q3","chi_tiet":"Chi ti\u1ebft s\u1ef1 c\u1ed1 #14","mo_ta":"M\u00f4 t\u1ea3 s\u1ef1 c\u1ed1 #14: C\u1ea7n c\u1ee9u h\u1ed9 ngay","hinh_anh":"image_14.jpg","so_nguoi_bi_anh_huong":2,"muc_do_khan_cap":"LOW","diem_uu_tien":2,"trang_thai":"HOAN_THANH","thoi_gian_gui":"2026-03-31 21:42:18","created_at":"2026-03-31T14:42:18.000000Z","updated_at":"2026-03-31T14:42:18.000000Z","nguoi_dung":{"id_nguoi_dung":5,"ho_ten":"Ho\u00e0ng Th\u1ecb H\u1ea1nh","so_dien_thoai":"0905555555","email":"hanh1@example.com","trang_thai":1,"created_at":"2026-03-31T14:42:15.000000Z","updated_at":"2026-03-31T14:42:15.000000Z"},"loai_su_co":{"id_loai_su_co":3,"ten_danh_muc":"S\u1ea1t l\u1edf \u0111\u1ea5t","slug_danh_muc":"sat-lo-dat","mo_ta":"S\u1ef1 c\u1ed1 li\u00ean quan \u0111\u1ebfn s\u1ea1t l\u1edf \u0111\u1ea5t, n\u00fai","trang_thai":1,"created_at":"2026-03-31T14:42:16.000000Z","updated_at":"2026-03-31T14:42:16.000000Z"},"hang_doi_xu_ly":{"id_hang_doi":15,"id_yeu_cau":15,"diem_uu_tien":2,"muc_khan_cap":"LOW","trang_thai":"DONE","thoi_gian_vao":"2026-03-31 21:42:18","thoi_gian_phan_cong":null,"created_at":"2026-03-31T14:42:18.000000Z","updated_at":"2026-03-31T14:42:18.000000Z"},"phan_loai_ais":[],"phan_congs":[{"id_phan_cong":8,"id_yeu_cau":15,"id_doi_cuu_ho":4,"id_chi_tiet_su_co":null,"mo_ta":"Ph\u00e2n c\u00f4ng x\u1eed l\u00fd s\u1ef1 c\u1ed1 #15","thoi_gian_phan_cong":"2026-03-31 08:42:18","trang_thai_nhiem_vu":"HOAN_THANH","created_at":"2026-03-31T14:42:18.000000Z","updated_at":"2026-03-31T14:42:18.000000Z"}],"danh_gias":[{"id_danh_gia":4,"id_yeu_cau":15,"id_nguoi_dung":5,"diem_danh_gia":5,"noi_dung_danh_gia":"X\u1eed l\u00fd t\u1ed1t, chuy\u00ean nghi\u1ec7p","created_at":"2026-03-31T14:42:18.000000Z","updated_at":"2026-03-31T14:42:18.000000Z"}]},{"id_yeu_cau":14,"id_nguoi_dung":4,"id_loai_su_co":1,"vi_tri_lat":"10.83000000","vi_tri_lng":"106.72000000","vi_tri_dia_chi":"S\u00f4ng S\u00e0i G\u00f2n, Q7","chi_tiet":"Chi ti\u1ebft s\u1ef1 c\u1ed1 #13","mo_ta":"M\u00f4 t\u1ea3 s\u1ef1 c\u1ed1 #13: C\u1ea7n c\u1ee9u h\u1ed9 ngay","hinh_anh":"image_13.jpg","so_nguoi_bi_anh_huong":6,"muc_do_khan_cap":"LOW","diem_uu_tien":9,"trang_thai":"DANG_XU_LY","thoi_gian_gui":"2026-03-31 21:42:18","created_at":"2026-03-31T14:42:18.000000Z","updated_at":"2026-03-31T14:42:18.000000Z","nguoi_dung":{"id_nguoi_dung":4,"ho_ten":"Ph\u1ea1m V\u0103n H\u1ea3i","so_dien_thoai":"0904444444","email":"hai1@example.com","trang_thai":1,"created_at":"2026-03-31T14:42:14.000000Z","updated_at":"2026-03-31T14:42:14.000000Z"},"loai_su_co":{"id_loai_su_co":1,"ten_danh_muc":"L\u0169 l\u1ee5t","slug_danh_muc":"lu-lut","mo_ta":"S\u1ef1 c\u1ed1 li\u00ean quan \u0111\u1ebfn ng\u1eadp l\u1ee5t, n\u01b0\u1edbc d\u00e2ng cao","trang_thai":1,"created_at":"2026-03-31T14:42:16.000000Z","updated_at":"2026-03-31T14:42:16.000000Z"},"hang_doi_xu_ly":{"id_hang_doi":14,"id_yeu_cau":14,"diem_uu_tien":9,"muc_khan_cap":"LOW","trang_thai":"PROCESSING","thoi_gian_vao":"2026-03-31 21:42:18","thoi_gian_phan_cong":null,"created_at":"2026-03-31T14:42:18.000000Z","updated_at":"2026-03-31T14:42:18.000000Z"},"phan_loai_ais":[],"phan_congs":[{"id_phan_cong":7,"id_yeu_cau":14,"id_doi_cuu_ho":1,"id_chi_tiet_su_co":null,"mo_ta":"Ph\u00e2n c\u00f4ng x\u1eed l\u00fd s\u1ef1 c\u1ed1 #14","thoi_gian_phan_cong":"2026-03-30 02:42:18","trang_thai_nhiem_vu":"DANG_XU_LY","created_at":"2026-03-31T14:42:18.000000Z","updated_at":"2026-03-31T14:42:18.000000Z"}],"danh_gias":[]},{"id_yeu_cau":13,"id_nguoi_dung":6,"id_loai_su_co":3,"vi_tri_lat":"10.80000000","vi_tri_lng":"106.71000000","vi_tri_dia_chi":"B\u1ec3 b\u01a1i Tao \u0110\u00e0n, Q3","chi_tiet":"Chi ti\u1ebft s\u1ef1 c\u1ed1 #12","mo_ta":"M\u00f4 t\u1ea3 s\u1ef1 c\u1ed1 #12: C\u1ea7n c\u1ee9u h\u1ed9 ngay","hinh_anh":"image_12.jpg","so_nguoi_bi_anh_huong":9,"muc_do_khan_cap":"LOW","diem_uu_tien":10,"trang_thai":"CHO_XU_LY","thoi_gian_gui":"2026-03-31 21:42:18","created_at":"2026-03-31T14:42:18.000000Z","updated_at":"2026-03-31T14:42:18.000000Z","nguoi_dung":{"id_nguoi_dung":6,"ho_ten":"V\u00f5 V\u0103n H\u1ec7","so_dien_thoai":"0906666666","email":"he1@example.com","trang_thai":1,"created_at":"2026-03-31T14:42:15.000000Z","updated_at":"2026-03-31T14:42:15.000000Z"},"loai_su_co":{"id_loai_su_co":3,"ten_danh_muc":"S\u1ea1t l\u1edf \u0111\u1ea5t","slug_danh_muc":"sat-lo-dat","mo_ta":"S\u1ef1 c\u1ed1 li\u00ean quan \u0111\u1ebfn s\u1ea1t l\u1edf \u0111\u1ea5t, n\u00fai","trang_thai":1,"created_at":"2026-03-31T14:42:16.000000Z","updated_at":"2026-03-31T14:42:16.000000Z"},"hang_doi_xu_ly":{"id_hang_doi":13,"id_yeu_cau":13,"diem_uu_tien":10,"muc_khan_cap":"LOW","trang_thai":"WAITING","thoi_gian_vao":"2026-03-31 21:42:18","thoi_gian_phan_cong":null,"created_at":"2026-03-31T14:42:18.000000Z","updated_at":"2026-03-31T14:42:18.000000Z"},"phan_loai_ais":[],"phan_congs":[],"danh_gias":[]},{"id_yeu_cau":12,"id_nguoi_dung":2,"id_loai_su_co":1,"vi_tri_lat":"10.78000000","vi_tri_lng":"106.70500000","vi_tri_dia_chi":"456 \u0110\u01b0\u1eddng Nguy\u1ec5n Hu\u1ec7, Q1","chi_tiet":"Chi ti\u1ebft s\u1ef1 c\u1ed1 #11","mo_ta":"M\u00f4 t\u1ea3 s\u1ef1 c\u1ed1 #11: C\u1ea7n c\u1ee9u h\u1ed9 ngay","hinh_anh":"image_11.jpg","so_nguoi_bi_anh_huong":2,"muc_do_khan_cap":"LOW","diem_uu_tien":10,"trang_thai":"HUY_BO","thoi_gian_gui":"2026-03-31 21:42:18","created_at":"2026-03-31T14:42:18.000000Z","updated_at":"2026-03-31T14:42:18.000000Z","nguoi_dung":{"id_nguoi_dung":2,"ho_ten":"Tr\u1ea7n V\u0103n H\u00f9ng","so_dien_thoai":"0902222222","email":"hung1@example.com","trang_thai":1,"created_at":"2026-03-31T14:42:14.000000Z","updated_at":"2026-03-31T14:42:14.000000Z"},"loai_su_co":{"id_loai_su_co":1,"ten_danh_muc":"L\u0169 l\u1ee5t","slug_danh_muc":"lu-lut","mo_ta":"S\u1ef1 c\u1ed1 li\u00ean quan \u0111\u1ebfn ng\u1eadp l\u1ee5t, n\u01b0\u1edbc d\u00e2ng cao","trang_thai":1,"created_at":"2026-03-31T14:42:16.000000Z","updated_at":"2026-03-31T14:42:16.000000Z"},"hang_doi_xu_ly":{"id_hang_doi":12,"id_yeu_cau":12,"diem_uu_tien":10,"muc_khan_cap":"LOW","trang_thai":"DONE","thoi_gian_vao":"2026-03-31 21:42:18","thoi_gian_phan_cong":null,"created_at":"2026-03-31T14:42:18.000000Z","updated_at":"2026-03-31T14:42:18.000000Z"},"phan_loai_ais":[],"phan_congs":[],"danh_gias":[]},{"id_yeu_cau":11,"id_nguoi_dung":7,"id_loai_su_co":6,"vi_tri_lat":"10.77690000","vi_tri_lng":"106.70090000","vi_tri_dia_chi":"123 \u0110\u01b0\u1eddng L\u00ea L\u1ee3i, Q1","chi_tiet":"Chi ti\u1ebft s\u1ef1 c\u1ed1 #10","mo_ta":"M\u00f4 t\u1ea3 s\u1ef1 c\u1ed1 #10: C\u1ea7n c\u1ee9u h\u1ed9 ngay","hinh_anh":"image_10.jpg","so_nguoi_bi_anh_huong":3,"muc_do_khan_cap":"MEDIUM","diem_uu_tien":8,"trang_thai":"HOAN_THANH","thoi_gian_gui":"2026-03-31 21:42:18","created_at":"2026-03-31T14:42:18.000000Z","updated_at":"2026-03-31T14:42:18.000000Z","nguoi_dung":{"id_nguoi_dung":7,"ho_ten":"B\u00f9i Th\u1ecb Hi\u1ec1n","so_dien_thoai":"0907777777","email":"hien1@example.com","trang_thai":1,"created_at":"2026-03-31T14:42:15.000000Z","updated_at":"2026-03-31T14:42:15.000000Z"},"loai_su_co":{"id_loai_su_co":6,"ten_danh_muc":"H\u1ea1n h\u00e1n","slug_danh_muc":"han-han","mo_ta":"Thi\u1ebfu n\u01b0\u1edbc k\u00e9o d\u00e0i, \u1ea3nh h\u01b0\u1edfng sinh ho\u1ea1t","trang_thai":1,"created_at":"2026-03-31T14:42:16.000000Z","updated_at":"2026-03-31T14:42:16.000000Z"},"hang_doi_xu_ly":{"id_hang_doi":11,"id_yeu_cau":11,"diem_uu_tien":8,"muc_khan_cap":"MEDIUM","trang_thai":"DONE","thoi_gian_vao":"2026-03-31 21:42:18","thoi_gian_phan_cong":null,"created_at":"2026-03-31T14:42:18.000000Z","updated_at":"2026-03-31T14:42:18.000000Z"},"phan_loai_ais":[],"phan_congs":[{"id_phan_cong":6,"id_yeu_cau":11,"id_doi_cuu_ho":2,"id_chi_tiet_su_co":null,"mo_ta":"Ph\u00e2n c\u00f4ng x\u1eed l\u00fd s\u1ef1 c\u1ed1 #11","thoi_gian_phan_cong":"2026-03-30 22:42:18","trang_thai_nhiem_vu":"HOAN_THANH","created_at":"2026-03-31T14:42:18.000000Z","updated_at":"2026-03-31T14:42:18.000000Z"}],"danh_gias":[{"id_danh_gia":3,"id_yeu_cau":11,"id_nguoi_dung":7,"diem_danh_gia":5,"noi_dung_danh_gia":"X\u1eed l\u00fd t\u1ed1t, chuy\u00ean nghi\u1ec7p","created_at":"2026-03-31T14:42:18.000000Z","updated_at":"2026-03-31T14:42:18.000000Z"}]},{"id_yeu_cau":10,"id_nguoi_dung":8,"id_loai_su_co":1,"vi_tri_lat":"10.86000000","vi_tri_lng":"106.68000000","vi_tri_dia_chi":"\u0110\u1ea1i l\u1ed9 Th\u1ed1ng Nh\u1ea5t, Q11","chi_tiet":"Chi ti\u1ebft s\u1ef1 c\u1ed1 #9","mo_ta":"M\u00f4 t\u1ea3 s\u1ef1 c\u1ed1 #9: C\u1ea7n c\u1ee9u h\u1ed9 ngay","hinh_anh":"image_9.jpg","so_nguoi_bi_anh_huong":2,"muc_do_khan_cap":"HIGH","diem_uu_tien":10,"trang_thai":"DANG_XU_LY","thoi_gian_gui":"2026-03-31 21:42:18","created_at":"2026-03-31T14:42:18.000000Z","updated_at":"2026-03-31T14:42:18.000000Z","nguoi_dung":{"id_nguoi_dung":8,"ho_ten":"D\u01b0\u01a1ng V\u0103n H\u1eadu","so_dien_thoai":"0908888888","email":"hau1@example.com","trang_thai":1,"created_at":"2026-03-31T14:42:15.000000Z","updated_at":"2026-03-31T14:42:15.000000Z"},"loai_su_co":{"id_loai_su_co":1,"ten_danh_muc":"L\u0169 l\u1ee5t","slug_danh_muc":"lu-lut","mo_ta":"S\u1ef1 c\u1ed1 li\u00ean quan \u0111\u1ebfn ng\u1eadp l\u1ee5t, n\u01b0\u1edbc d\u00e2ng cao","trang_thai":1,"created_at":"2026-03-31T14:42:16.000000Z","updated_at":"2026-03-31T14:42:16.000000Z"},"hang_doi_xu_ly":{"id_hang_doi":10,"id_yeu_cau":10,"diem_uu_tien":10,"muc_khan_cap":"HIGH","trang_thai":"PROCESSING","thoi_gian_vao":"2026-03-31 21:42:18","thoi_gian_phan_cong":null,"created_at":"2026-03-31T14:42:18.000000Z","updated_at":"2026-03-31T14:42:18.000000Z"},"phan_loai_ais":[],"phan_congs":[{"id_phan_cong":5,"id_yeu_cau":10,"id_doi_cuu_ho":5,"id_chi_tiet_su_co":null,"mo_ta":"Ph\u00e2n c\u00f4ng x\u1eed l\u00fd s\u1ef1 c\u1ed1 #10","thoi_gian_phan_cong":"2026-03-30 00:42:18","trang_thai_nhiem_vu":"DANG_XU_LY","created_at":"2026-03-31T14:42:18.000000Z","updated_at":"2026-03-31T14:42:18.000000Z"}],"danh_gias":[]},{"id_yeu_cau":9,"id_nguoi_dung":5,"id_loai_su_co":5,"vi_tri_lat":"10.85000000","vi_tri_lng":"106.75000000","vi_tri_dia_chi":"Su\u1ed1i Ti\u00ean, Q9","chi_tiet":"Chi ti\u1ebft s\u1ef1 c\u1ed1 #8","mo_ta":"M\u00f4 t\u1ea3 s\u1ef1 c\u1ed1 #8: C\u1ea7n c\u1ee9u h\u1ed9 ngay","hinh_anh":"image_8.jpg","so_nguoi_bi_anh_huong":7,"muc_do_khan_cap":"MEDIUM","diem_uu_tien":9,"trang_thai":"CHO_XU_LY","thoi_gian_gui":"2026-03-31 21:42:18","created_at":"2026-03-31T14:42:18.000000Z","updated_at":"2026-03-31T14:42:18.000000Z","nguoi_dung":{"id_nguoi_dung":5,"ho_ten":"Ho\u00e0ng Th\u1ecb H\u1ea1nh","so_dien_thoai":"0905555555","email":"hanh1@example.com","trang_thai":1,"created_at":"2026-03-31T14:42:15.000000Z","updated_at":"2026-03-31T14:42:15.000000Z"},"loai_su_co":{"id_loai_su_co":5,"ten_danh_muc":"S\u00f3ng th\u1ea7n","slug_danh_muc":"song-than","mo_ta":"S\u1ef1 c\u1ed1 do s\u00f3ng bi\u1ec3n d\u00e2ng cao b\u1ea5t th\u01b0\u1eddng","trang_thai":1,"created_at":"2026-03-31T14:42:16.000000Z","updated_at":"2026-03-31T14:42:16.000000Z"},"hang_doi_xu_ly":{"id_hang_doi":9,"id_yeu_cau":9,"diem_uu_tien":9,"muc_khan_cap":"MEDIUM","trang_thai":"WAITING","thoi_gian_vao":"2026-03-31 21:42:18","thoi_gian_phan_cong":null,"created_at":"2026-03-31T14:42:18.000000Z","updated_at":"2026-03-31T14:42:18.000000Z"},"phan_loai_ais":[],"phan_congs":[],"danh_gias":[]},{"id_yeu_cau":8,"id_nguoi_dung":8,"id_loai_su_co":4,"vi_tri_lat":"10.82500000","vi_tri_lng":"106.71000000","vi_tri_dia_chi":"B\u1edd B\u1eafc, Q7","chi_tiet":"Chi ti\u1ebft s\u1ef1 c\u1ed1 #7","mo_ta":"M\u00f4 t\u1ea3 s\u1ef1 c\u1ed1 #7: C\u1ea7n c\u1ee9u h\u1ed9 ngay","hinh_anh":"image_7.jpg","so_nguoi_bi_anh_huong":3,"muc_do_khan_cap":"LOW","diem_uu_tien":4,"trang_thai":"HUY_BO","thoi_gian_gui":"2026-03-31 21:42:18","created_at":"2026-03-31T14:42:18.000000Z","updated_at":"2026-03-31T14:42:18.000000Z","nguoi_dung":{"id_nguoi_dung":8,"ho_ten":"D\u01b0\u01a1ng V\u0103n H\u1eadu","so_dien_thoai":"0908888888","email":"hau1@example.com","trang_thai":1,"created_at":"2026-03-31T14:42:15.000000Z","updated_at":"2026-03-31T14:42:15.000000Z"},"loai_su_co":{"id_loai_su_co":4,"ten_danh_muc":"\u0110\u1ed9ng \u0111\u1ea5t","slug_danh_muc":"dong-dat","mo_ta":"S\u1ef1 c\u1ed1 do rung ch\u1ea5n \u0111\u1ecba ch\u1ea5t","trang_thai":1,"created_at":"2026-03-31T14:42:16.000000Z","updated_at":"2026-03-31T14:42:16.000000Z"},"hang_doi_xu_ly":{"id_hang_doi":8,"id_yeu_cau":8,"diem_uu_tien":4,"muc_khan_cap":"LOW","trang_thai":"DONE","thoi_gian_vao":"2026-03-31 21:42:18","thoi_gian_phan_cong":null,"created_at":"2026-03-31T14:42:18.000000Z","updated_at":"2026-03-31T14:42:18.000000Z"},"phan_loai_ais":[],"phan_congs":[],"danh_gias":[]},{"id_yeu_cau":7,"id_nguoi_dung":5,"id_loai_su_co":3,"vi_tri_lat":"10.80500000","vi_tri_lng":"106.69800000","vi_tri_dia_chi":"C\u00f4ng vi\u00ean Tao \u0110\u00e0n, Q3","chi_tiet":"Chi ti\u1ebft s\u1ef1 c\u1ed1 #6","mo_ta":"M\u00f4 t\u1ea3 s\u1ef1 c\u1ed1 #6: C\u1ea7n c\u1ee9u h\u1ed9 ngay","hinh_anh":"image_6.jpg","so_nguoi_bi_anh_huong":10,"muc_do_khan_cap":"CRITICAL","diem_uu_tien":6,"trang_thai":"HOAN_THANH","thoi_gian_gui":"2026-03-31 21:42:18","created_at":"2026-03-31T14:42:18.000000Z","updated_at":"2026-03-31T14:42:18.000000Z","nguoi_dung":{"id_nguoi_dung":5,"ho_ten":"Ho\u00e0ng Th\u1ecb H\u1ea1nh","so_dien_thoai":"0905555555","email":"hanh1@example.com","trang_thai":1,"created_at":"2026-03-31T14:42:15.000000Z","updated_at":"2026-03-31T14:42:15.000000Z"},"loai_su_co":{"id_loai_su_co":3,"ten_danh_muc":"S\u1ea1t l\u1edf \u0111\u1ea5t","slug_danh_muc":"sat-lo-dat","mo_ta":"S\u1ef1 c\u1ed1 li\u00ean quan \u0111\u1ebfn s\u1ea1t l\u1edf \u0111\u1ea5t, n\u00fai","trang_thai":1,"created_at":"2026-03-31T14:42:16.000000Z","updated_at":"2026-03-31T14:42:16.000000Z"},"hang_doi_xu_ly":{"id_hang_doi":7,"id_yeu_cau":7,"diem_uu_tien":6,"muc_khan_cap":"CRITICAL","trang_thai":"DONE","thoi_gian_vao":"2026-03-31 21:42:18","thoi_gian_phan_cong":null,"created_at":"2026-03-31T14:42:18.000000Z","updated_at":"2026-03-31T14:42:18.000000Z"},"phan_loai_ais":[],"phan_congs":[{"id_phan_cong":4,"id_yeu_cau":7,"id_doi_cuu_ho":4,"id_chi_tiet_su_co":null,"mo_ta":"Ph\u00e2n c\u00f4ng x\u1eed l\u00fd s\u1ef1 c\u1ed1 #7","thoi_gian_phan_cong":"2026-03-31 01:42:18","trang_thai_nhiem_vu":"HOAN_THANH","created_at":"2026-03-31T14:42:18.000000Z","updated_at":"2026-03-31T14:42:18.000000Z"}],"danh_gias":[{"id_danh_gia":2,"id_yeu_cau":7,"id_nguoi_dung":5,"diem_danh_gia":5,"noi_dung_danh_gia":"X\u1eed l\u00fd t\u1ed1t, chuy\u00ean nghi\u1ec7p","created_at":"2026-03-31T14:42:18.000000Z","updated_at":"2026-03-31T14:42:18.000000Z"}]},{"id_yeu_cau":6,"id_nguoi_dung":7,"id_loai_su_co":5,"vi_tri_lat":"10.77500000","vi_tri_lng":"106.69500000","vi_tri_dia_chi":"Ch\u1ee3 Bi\u1ebfn, Q1","chi_tiet":"Chi ti\u1ebft s\u1ef1 c\u1ed1 #5","mo_ta":"M\u00f4 t\u1ea3 s\u1ef1 c\u1ed1 #5: C\u1ea7n c\u1ee9u h\u1ed9 ngay","hinh_anh":"image_5.jpg","so_nguoi_bi_anh_huong":4,"muc_do_khan_cap":"LOW","diem_uu_tien":6,"trang_thai":"DANG_XU_LY","thoi_gian_gui":"2026-03-31 21:42:18","created_at":"2026-03-31T14:42:18.000000Z","updated_at":"2026-03-31T14:42:18.000000Z","nguoi_dung":{"id_nguoi_dung":7,"ho_ten":"B\u00f9i Th\u1ecb Hi\u1ec1n","so_dien_thoai":"0907777777","email":"hien1@example.com","trang_thai":1,"created_at":"2026-03-31T14:42:15.000000Z","updated_at":"2026-03-31T14:42:15.000000Z"},"loai_su_co":{"id_loai_su_co":5,"ten_danh_muc":"S\u00f3ng th\u1ea7n","slug_danh_muc":"song-than","mo_ta":"S\u1ef1 c\u1ed1 do s\u00f3ng bi\u1ec3n d\u00e2ng cao b\u1ea5t th\u01b0\u1eddng","trang_thai":1,"created_at":"2026-03-31T14:42:16.000000Z","updated_at":"2026-03-31T14:42:16.000000Z"},"hang_doi_xu_ly":{"id_hang_doi":6,"id_yeu_cau":6,"diem_uu_tien":6,"muc_khan_cap":"LOW","trang_thai":"PROCESSING","thoi_gian_vao":"2026-03-31 21:42:18","thoi_gian_phan_cong":null,"created_at":"2026-03-31T14:42:18.000000Z","updated_at":"2026-03-31T14:42:18.000000Z"},"phan_loai_ais":[],"phan_congs":[{"id_phan_cong":3,"id_yeu_cau":6,"id_doi_cuu_ho":2,"id_chi_tiet_su_co":null,"mo_ta":"Ph\u00e2n c\u00f4ng x\u1eed l\u00fd s\u1ef1 c\u1ed1 #6","thoi_gian_phan_cong":"2026-03-31 08:42:18","trang_thai_nhiem_vu":"DANG_XU_LY","created_at":"2026-03-31T14:42:18.000000Z","updated_at":"2026-03-31T14:42:18.000000Z"}],"danh_gias":[]},{"id_yeu_cau":5,"id_nguoi_dung":7,"id_loai_su_co":2,"vi_tri_lat":"10.79000000","vi_tri_lng":"106.71500000","vi_tri_dia_chi":"\u0110\u01b0\u1eddng C\u00e1ch M\u1ea1ng Th\u00e1ng 8, Q3","chi_tiet":"Chi ti\u1ebft s\u1ef1 c\u1ed1 #4","mo_ta":"M\u00f4 t\u1ea3 s\u1ef1 c\u1ed1 #4: C\u1ea7n c\u1ee9u h\u1ed9 ngay","hinh_anh":"image_4.jpg","so_nguoi_bi_anh_huong":10,"muc_do_khan_cap":"LOW","diem_uu_tien":10,"trang_thai":"CHO_XU_LY","thoi_gian_gui":"2026-03-31 21:42:18","created_at":"2026-03-31T14:42:18.000000Z","updated_at":"2026-03-31T14:42:18.000000Z","nguoi_dung":{"id_nguoi_dung":7,"ho_ten":"B\u00f9i Th\u1ecb Hi\u1ec1n","so_dien_thoai":"0907777777","email":"hien1@example.com","trang_thai":1,"created_at":"2026-03-31T14:42:15.000000Z","updated_at":"2026-03-31T14:42:15.000000Z"},"loai_su_co":{"id_loai_su_co":2,"ten_danh_muc":"B\u00e3o","slug_danh_muc":"bao","mo_ta":"S\u1ef1 c\u1ed1 do b\u00e3o g\u00e2y ra nh\u01b0 gi\u00f3 m\u1ea1nh, s\u1eadp c\u00f4ng tr\u00ecnh","trang_thai":1,"created_at":"2026-03-31T14:42:16.000000Z","updated_at":"2026-03-31T14:42:16.000000Z"},"hang_doi_xu_ly":{"id_hang_doi":5,"id_yeu_cau":5,"diem_uu_tien":10,"muc_khan_cap":"LOW","trang_thai":"WAITING","thoi_gian_vao":"2026-03-31 21:42:18","thoi_gian_phan_cong":null,"created_at":"2026-03-31T14:42:18.000000Z","updated_at":"2026-03-31T14:42:18.000000Z"},"phan_loai_ais":[],"phan_congs":[],"danh_gias":[]},{"id_yeu_cau":4,"id_nguoi_dung":1,"id_loai_su_co":1,"vi_tri_lat":"10.83000000","vi_tri_lng":"106.72000000","vi_tri_dia_chi":"S\u00f4ng S\u00e0i G\u00f2n, Q7","chi_tiet":"Chi ti\u1ebft s\u1ef1 c\u1ed1 #3","mo_ta":"M\u00f4 t\u1ea3 s\u1ef1 c\u1ed1 #3: C\u1ea7n c\u1ee9u h\u1ed9 ngay","hinh_anh":"image_3.jpg","so_nguoi_bi_anh_huong":1,"muc_do_khan_cap":"MEDIUM","diem_uu_tien":2,"trang_thai":"HUY_BO","thoi_gian_gui":"2026-03-31 21:42:18","created_at":"2026-03-31T14:42:18.000000Z","updated_at":"2026-03-31T14:42:18.000000Z","nguoi_dung":{"id_nguoi_dung":1,"ho_ten":"Nguy\u1ec5n Th\u1ecb H\u01b0\u01a1ng","so_dien_thoai":"0901111111","email":"huong1@example.com","trang_thai":1,"created_at":"2026-03-31T14:42:14.000000Z","updated_at":"2026-03-31T14:42:14.000000Z"},"loai_su_co":{"id_loai_su_co":1,"ten_danh_muc":"L\u0169 l\u1ee5t","slug_danh_muc":"lu-lut","mo_ta":"S\u1ef1 c\u1ed1 li\u00ean quan \u0111\u1ebfn ng\u1eadp l\u1ee5t, n\u01b0\u1edbc d\u00e2ng cao","trang_thai":1,"created_at":"2026-03-31T14:42:16.000000Z","updated_at":"2026-03-31T14:42:16.000000Z"},"hang_doi_xu_ly":{"id_hang_doi":4,"id_yeu_cau":4,"diem_uu_tien":2,"muc_khan_cap":"MEDIUM","trang_thai":"DONE","thoi_gian_vao":"2026-03-31 21:42:18","thoi_gian_phan_cong":null,"created_at":"2026-03-31T14:42:18.000000Z","updated_at":"2026-03-31T14:42:18.000000Z"},"phan_loai_ais":[],"phan_congs":[],"danh_gias":[]},{"id_yeu_cau":3,"id_nguoi_dung":1,"id_loai_su_co":6,"vi_tri_lat":"10.80000000","vi_tri_lng":"106.71000000","vi_tri_dia_chi":"B\u1ec3 b\u01a1i Tao \u0110\u00e0n, Q3","chi_tiet":"Chi ti\u1ebft s\u1ef1 c\u1ed1 #2","mo_ta":"M\u00f4 t\u1ea3 s\u1ef1 c\u1ed1 #2: C\u1ea7n c\u1ee9u h\u1ed9 ngay","hinh_anh":"image_2.jpg","so_nguoi_bi_anh_huong":10,"muc_do_khan_cap":"MEDIUM","diem_uu_tien":9,"trang_thai":"HOAN_THANH","thoi_gian_gui":"2026-03-31 21:42:18","created_at":"2026-03-31T14:42:18.000000Z","updated_at":"2026-03-31T14:42:18.000000Z","nguoi_dung":{"id_nguoi_dung":1,"ho_ten":"Nguy\u1ec5n Th\u1ecb H\u01b0\u01a1ng","so_dien_thoai":"0901111111","email":"huong1@example.com","trang_thai":1,"created_at":"2026-03-31T14:42:14.000000Z","updated_at":"2026-03-31T14:42:14.000000Z"},"loai_su_co":{"id_loai_su_co":6,"ten_danh_muc":"H\u1ea1n h\u00e1n","slug_danh_muc":"han-han","mo_ta":"Thi\u1ebfu n\u01b0\u1edbc k\u00e9o d\u00e0i, \u1ea3nh h\u01b0\u1edfng sinh ho\u1ea1t","trang_thai":1,"created_at":"2026-03-31T14:42:16.000000Z","updated_at":"2026-03-31T14:42:16.000000Z"},"hang_doi_xu_ly":{"id_hang_doi":3,"id_yeu_cau":3,"diem_uu_tien":9,"muc_khan_cap":"MEDIUM","trang_thai":"DONE","thoi_gian_vao":"2026-03-31 21:42:18","thoi_gian_phan_cong":null,"created_at":"2026-03-31T14:42:18.000000Z","updated_at":"2026-03-31T14:42:18.000000Z"},"phan_loai_ais":[],"phan_congs":[{"id_phan_cong":2,"id_yeu_cau":3,"id_doi_cuu_ho":5,"id_chi_tiet_su_co":null,"mo_ta":"Ph\u00e2n c\u00f4ng x\u1eed l\u00fd s\u1ef1 c\u1ed1 #3","thoi_gian_phan_cong":"2026-03-29 18:42:18","trang_thai_nhiem_vu":"HOAN_THANH","created_at":"2026-03-31T14:42:18.000000Z","updated_at":"2026-03-31T14:42:18.000000Z"}],"danh_gias":[{"id_danh_gia":1,"id_yeu_cau":3,"id_nguoi_dung":1,"diem_danh_gia":4,"noi_dung_danh_gia":"X\u1eed l\u00fd t\u1ed1t, chuy\u00ean nghi\u1ec7p","created_at":"2026-03-31T14:42:18.000000Z","updated_at":"2026-03-31T14:42:18.000000Z"}]},{"id_yeu_cau":2,"id_nguoi_dung":7,"id_loai_su_co":6,"vi_tri_lat":"10.78000000","vi_tri_lng":"106.70500000","vi_tri_dia_chi":"456 \u0110\u01b0\u1eddng Nguy\u1ec5n Hu\u1ec7, Q1","chi_tiet":"Chi ti\u1ebft s\u1ef1 c\u1ed1 #1","mo_ta":"M\u00f4 t\u1ea3 s\u1ef1 c\u1ed1 #1: C\u1ea7n c\u1ee9u h\u1ed9 ngay","hinh_anh":"image_1.jpg","so_nguoi_bi_anh_huong":1,"muc_do_khan_cap":"HIGH","diem_uu_tien":3,"trang_thai":"DANG_XU_LY","thoi_gian_gui":"2026-03-31 21:42:18","created_at":"2026-03-31T14:42:18.000000Z","updated_at":"2026-03-31T14:42:18.000000Z","nguoi_dung":{"id_nguoi_dung":7,"ho_ten":"B\u00f9i Th\u1ecb Hi\u1ec1n","so_dien_thoai":"0907777777","email":"hien1@example.com","trang_thai":1,"created_at":"2026-03-31T14:42:15.000000Z","updated_at":"2026-03-31T14:42:15.000000Z"},"loai_su_co":{"id_loai_su_co":6,"ten_danh_muc":"H\u1ea1n h\u00e1n","slug_danh_muc":"han-han","mo_ta":"Thi\u1ebfu n\u01b0\u1edbc k\u00e9o d\u00e0i, \u1ea3nh h\u01b0\u1edfng sinh ho\u1ea1t","trang_thai":1,"created_at":"2026-03-31T14:42:16.000000Z","updated_at":"2026-03-31T14:42:16.000000Z"},"hang_doi_xu_ly":{"id_hang_doi":2,"id_yeu_cau":2,"diem_uu_tien":3,"muc_khan_cap":"HIGH","trang_thai":"PROCESSING","thoi_gian_vao":"2026-03-31 21:42:18","thoi_gian_phan_cong":null,"created_at":"2026-03-31T14:42:18.000000Z","updated_at":"2026-03-31T14:42:18.000000Z"},"phan_loai_ais":[],"phan_congs":[{"id_phan_cong":1,"id_yeu_cau":2,"id_doi_cuu_ho":1,"id_chi_tiet_su_co":null,"mo_ta":"Ph\u00e2n c\u00f4ng x\u1eed l\u00fd s\u1ef1 c\u1ed1 #2","thoi_gian_phan_cong":"2026-03-30 13:42:18","trang_thai_nhiem_vu":"DANG_XU_LY","created_at":"2026-03-31T14:42:18.000000Z","updated_at":"2026-03-31T14:42:18.000000Z"}],"danh_gias":[]}],"first_page_url":"http:\/\/localhost:8000\/api\/yeu-cau-cuu-ho?page=1","from":1,"last_page":2,"last_page_url":"http:\/\/localhost:8000\/api\/yeu-cau-cuu-ho?page=2","links":[{"url":null,"label":"&laquo; Previous","page":null,"active":false},{"url":"http:\/\/localhost:8000\/api\/yeu-cau-cuu-ho?page=1","label":"1","page":1,"active":true},{"url":"http:\/\/localhost:8000\/api\/yeu-cau-cuu-ho?page=2","label":"2","page":2,"active":false},{"url":"http:\/\/localhost:8000\/api\/yeu-cau-cuu-ho?page=2","label":"Next &raquo;","page":2,"active":false}],"next_page_url":"http:\/\/localhost:8000\/api\/yeu-cau-cuu-ho?page=2","path":"http:\/\/localhost:8000\/api\/yeu-cau-cuu-ho","per_page":15,"prev_page_url":null,"to":15,"total":16}}
